dump.vcd
$date
	Tue Feb 13 23:08:51 2024
$end
$version
	Icarus Verilog
$end
$timescale
	1s
$end
$scope module TB $end
$var reg 1 ! clk $end
$var reg 1 " reset $end
$scope module Single_Cycle_Top $end
$var wire 1 ! clk $end
$var wire 1 " reset $end
$var wire 1 # zero $end
$var wire 32 $ srcB [31:0] $end
$var wire 1 % regWrite $end
$var wire 32 & instr [31:0] $end
$var wire 1 ' branch_out $end
$var wire 2 ( ResultSrc [1:0] $end
$var wire 32 ) RD_2_top [31:0] $end
$var wire 32 * RD_1_top [31:0] $end
$var wire 32 + PC_out [31:0] $end
$var wire 32 , PC_Plus_4 [31:0] $end
$var wire 32 - PC_Mux_out [31:0] $end
$var wire 1 . PCSrc $end
$var wire 1 / MemWrite $end
$var wire 1 0 MemReg $end
$var wire 2 1 ImmSrc [1:0] $end
$var wire 32 2 ImmExtend_top [31:0] $end
$var wire 32 3 Final_result [31:0] $end
$var wire 32 4 DM_RD [31:0] $end
$var wire 1 5 Branch $end
$var wire 32 6 BT [31:0] $end
$var wire 32 7 ALU_result_top [31:0] $end
$var wire 2 8 ALU_Op [1:0] $end
$var wire 3 9 ALU_Control_top [2:0] $end
$var wire 1 : ALUSrc $end
$scope module ALU $end
$var wire 32 ; A_AND_B [31:0] $end
$var wire 32 < A_OR_B [31:0] $end
$var wire 32 = NOT_B [31:0] $end
$var wire 32 > Result [31:0] $end
$var wire 32 ? XOR [31:0] $end
$var wire 1 @ carryFlag $end
$var wire 1 A overflowFlag $end
$var wire 1 B zeroFlag $end
$var wire 1 C negativeFlag $end
$var wire 1 D carry_out $end
$var wire 1 ' branch_out $end
$var wire 32 E SUM [31:0] $end
$var wire 32 F SLT [31:0] $end
$var wire 32 G MUX_2 [31:0] $end
$var wire 32 H MUX_1 [31:0] $end
$var wire 32 I B [31:0] $end
$var wire 3 J ALU_Control [2:0] $end
$var wire 32 K A [31:0] $end
$upscope $end
$scope module Branch_Target $end
$var wire 32 L PCOutPut [31:0] $end
$var wire 32 M ImmExtendOutput [31:0] $end
$var wire 32 N BranchTarget [31:0] $end
$upscope $end
$scope module Control_unit_top $end
$var wire 3 O func3 [2:0] $end
$var wire 7 P func7 [6:0] $end
$var wire 7 Q opcode [6:0] $end
$var wire 1 # zero $end
$var wire 1 % regWrite $end
$var wire 2 R ResultSrc [1:0] $end
$var wire 1 . PCSrc $end
$var wire 1 / MemWrite $end
$var wire 1 0 MemReg $end
$var wire 2 S ImmSrc [1:0] $end
$var wire 1 5 Branch $end
$var wire 2 T ALU_Op [1:0] $end
$var wire 3 U ALU_Control [2:0] $end
$var wire 1 : ALUSrc $end
$scope module ALU_Decoder $end
$var wire 3 V func3 [2:0] $end
$var wire 7 W func7 [6:0] $end
$var wire 2 X ALU_Op [1:0] $end
$var wire 3 Y ALU_Control [2:0] $end
$upscope $end
$scope module Main_Decoder $end
$var wire 7 Z opcode [6:0] $end
$var wire 1 # zero $end
$var reg 1 : ALUSrc $end
$var reg 2 [ ALU_Op [1:0] $end
$var reg 1 5 Branch $end
$var reg 2 \ ImmSrc [1:0] $end
$var reg 1 0 MemReg $end
$var reg 1 / MemWrite $end
$var reg 1 . PCSrc $end
$var reg 2 ] ResultSrc [1:0] $end
$var reg 1 % regWrite $end
$upscope $end
$upscope $end
$scope module Data_Memory $end
$var wire 32 ^ A [31:0] $end
$var wire 1 / WE $end
$var wire 1 ! clk $end
$var wire 1 " reset $end
$var wire 32 _ WD [31:0] $end
$var reg 32 ` RD [31:0] $end
$upscope $end
$scope module ImmExtend $end
$var wire 2 a ImmSrc [1:0] $end
$var wire 32 b instr [31:0] $end
$var reg 32 c extendedImm [31:0] $end
$upscope $end
$scope module Instruction_Memory $end
$var wire 1 " reset $end
$var wire 32 d RD [31:0] $end
$var wire 32 e A [31:0] $end
$upscope $end
$scope module MUX $end
$var wire 32 f b [31:0] $end
$var wire 1 : s $end
$var wire 32 g o [31:0] $end
$var wire 32 h a [31:0] $end
$upscope $end
$scope module MUX_after_DM $end
$var wire 32 i a [31:0] $end
$var wire 32 j b [31:0] $end
$var wire 1 0 s $end
$var wire 32 k o [31:0] $end
$upscope $end
$scope module Mux_PC $end
$var wire 32 l b [31:0] $end
$var wire 1 m s $end
$var wire 32 n o [31:0] $end
$var wire 32 o a [31:0] $end
$upscope $end
$scope module PC_adder $end
$var wire 32 p b [31:0] $end
$var wire 32 q s [31:0] $end
$var wire 32 r a [31:0] $end
$upscope $end
$scope module Program_Counter $end
$var wire 32 s PC_Next [31:0] $end
$var wire 1 ! clk $end
$var wire 1 " reset $end
$var reg 32 t PC [31:0] $end
$upscope $end
$scope module Register_File $end
$var wire 5 u A1 [4:0] $end
$var wire 5 v A2 [4:0] $end
$var wire 5 w A3 [4:0] $end
$var wire 32 x WD3 [31:0] $end
$var wire 1 % WE3 $end
$var wire 1 ! clk $end
$var wire 1 " reset $end
$var reg 32 y RD1 [31:0] $end
$var reg 32 z RD2 [31:0] $end
$scope begin $ivl_for_loop0 $end
$var integer 32 { i [31:0] $end
$upscope $end
$upscope $end
$upscope $end
$upscope $end
$enddefinitions $end
$comment Show the parameter values. $end
$dumpall
$end
#0
$dumpvars
b100000 {
b0 z
b0 y
bx x
b0 w
b0 v
b0 u
b0 t
b100 s
b0 r
b100 q
b100 p
b100 o
b100 n
0m
b0 l
bx k
bx j
b0 i
b0 h
b0 g
b0 f
b0 e
b0 d
b0 c
b0 b
b0 a
bx `
b0 _
b0 ^
b10 ]
b0 \
b0 [
b0 Z
b0 Y
b0 X
b0 W
b0 V
b0 U
b0 T
b0 S
b10 R
b0 Q
b0 P
b0 O
b0 N
b0 M
b0 L
b0 K
b0 J
b0 I
b0 H
b0 G
b0 F
b0 E
0D
0C
1B
0A
0@
b0 ?
b0 >
b11111111111111111111111111111111 =
b0 <
b0 ;
1:
b0 9
b0 8
b0 7
b0 6
05
bx 4
bx 3
b0 2
b0 1
10
0/
0.
b100 -
b100 ,
b0 +
b0 *
b0 )
b10 (
0'
b0 &
1%
b0 $
z#
1"
1!
$end
#50
0!
#100
b11 3
b11 k
b11 x
0A
0B
0C
00
b10 8
b10 T
b10 X
b10 [
b1 (
b1 R
b1 ]
b0 F
b11 7
b11 >
b11 ^
b11 i
b11 G
0@
b11 E
0D
b11 H
b11 ?
b11111111111111111111111111111100 =
b11 <
b0 ;
b0 )
b0 _
b0 h
b0 z
b0 *
b0 K
b0 y
b11 $
b11 I
b11 g
b1000 -
b1000 n
b1000 s
b0 P
b0 W
b0 O
b0 V
b10011 Q
b10011 Z
b101 w
b11 v
b0 u
b11 2
b11 M
b11 c
b11 f
b1000 ,
b1000 o
b1000 q
b111 6
b111 N
b111 l
b100 +
b100 L
b100 e
b100 r
b100 t
b1100000000001010010011 &
b1100000000001010010011 b
b1100000000001010010011 d
1!
0"
#150
0!
#200
b100 3
b100 k
b100 x
b100 7
b100 >
b100 ^
b100 i
b100 G
b100 E
b100 H
b100 ?
b11111111111111111111111111111011 =
b100 <
b100 $
b100 I
b100 g
b110 w
b100 v
b100 2
b100 M
b100 c
b100 f
b10000000000001100010011 &
b10000000000001100010011 b
b10000000000001100010011 d
b1100 -
b1100 n
b1100 s
b1100 ,
b1100 o
b1100 q
b1100 6
b1100 N
b1100 l
b1000 +
b1000 L
b1000 e
b1000 r
b1000 t
1!
#250
0!
#300
b100 )
b100 _
b100 h
b100 z
b111 3
b111 k
b111 x
b111 7
b111 >
b111 ^
b111 i
b111 G
b111 E
b100 H
b111 ?
b11111111111111111111111111111011 =
b111 <
b0 ;
0:
b11 *
b11 K
b11 y
b100 $
b100 I
b100 g
b110011 Q
b110011 Z
b1010 w
b110 v
b101 u
b110 2
b110 M
b110 c
b110 f
b11000101000010100110011 &
b11000101000010100110011 b
b11000101000010100110011 d
b10000 -
b10000 n
b10000 s
b10000 ,
b10000 o
b10000 q
b10010 6
b10010 N
b10010 l
b1100 +
b1100 L
b1100 e
b1100 r
b1100 t
1!
#350
0!
#400
b1 3
b1 k
b1 x
b1 H
b11111111111111111111111111111110 =
b1 7
b1 >
b1 ^
b1 i
b1 G
b1 $
b1 I
b1 g
b1 E
b1 ?
b1 <
1:
b0 )
b0 _
b0 h
b0 z
b0 *
b0 K
b0 y
b10011 Q
b10011 Z
b1011 w
b1 v
b0 u
b1 2
b1 M
b1 c
b1 f
b100000000010110010011 &
b100000000010110010011 b
b100000000010110010011 d
b10100 -
b10100 n
b10100 s
b10100 ,
b10100 o
b10100 q
b10001 6
b10001 N
b10001 l
b10000 +
b10000 L
b10000 e
b10000 r
b10000 t
1!
#450
0!
#500
b1010 3
b1010 k
b1010 x
b1010 7
b1010 >
b1010 ^
b1010 i
b1010 G
b1010 E
b1010 H
b1010 ?
b11111111111111111111111111110101 =
b1010 <
b111 )
b111 _
b111 h
b111 z
b1010 $
b1010 I
b1010 g
b1100 w
b1010 v
b1010 2
b1010 M
b1010 c
b1010 f
b101000000000011000010011 &
b101000000000011000010011 b
b101000000000011000010011 d
b11000 -
b11000 n
b11000 s
b11000 ,
b11000 o
b11000 q
b11110 6
b11110 N
b11110 l
b10100 +
b10100 L
b10100 e
b10100 r
b10100 t
1!
#550
0!
#600
b10 3
b10 k
b10 x
b10 7
b10 >
b10 ^
b10 i
b10 G
b10 E
b1 H
b0 ?
b11111111111111111111111111111110 =
b1 <
b1 ;
b0 )
b0 _
b0 h
b0 z
b1 *
b1 K
b1 y
b1 $
b1 I
b1 g
b1011 w
b1 v
b1011 u
b1 2
b1 M
b1 c
b1 f
b101011000010110010011 &
b101011000010110010011 b
b101011000010110010011 d
b11100 -
b11100 n
b11100 s
b11100 ,
b11100 o
b11100 q
b11001 6
b11001 N
b11001 l
b11000 +
b11000 L
b11000 e
b11000 r
b11000 t
1!
#650
0!
#700
b10 *
b10 K
b10 y
1B
b110 9
b110 J
b110 U
b110 Y
b0 3
b0 k
b0 x
b0 7
b0 >
b0 ^
b0 i
b0 G
b1100 E
b1010 H
b1000 ?
b11111111111111111111111111110101 =
b1010 <
b10 ;
x.
b1 8
b1 T
b1 X
b1 [
15
b0 (
b0 R
b0 ]
0:
b10 1
b10 S
b10 \
b10 a
0%
b1010 )
b1010 _
b1010 h
b1010 z
b1010 $
b1010 I
b1010 g
b1100011 Q
b1100011 Z
b1000 w
b1100 v
b1000 2
b1000 M
b1000 c
b1000 f
b110001011000010001100011 &
b110001011000010001100011 b
b110001011000010001100011 d
b100000 -
b100000 n
b100000 s
b100000 ,
b100000 o
b100000 q
b100100 6
b100100 N
b100100 l
b11100 +
b11100 L
b11100 e
b11100 r
b11100 t
1!
#750
0!
#800
1m
b0 H
1'
b11111111111111111111111111111111 =
b0 <
b0 $
b0 I
b0 g
b0 E
b0 ?
b0 ;
b0 )
b0 _
b0 h
b0 z
b0 *
b0 K
b0 y
b1111111 P
b1111111 W
b10101 w
b0 v
b0 u
b11111111111111111111111111110100 2
b11111111111111111111111111110100 M
b11111111111111111111111111110100 c
b11111111111111111111111111110100 f
b11111110000000000000101011100011 &
b11111110000000000000101011100011 b
b11111110000000000000101011100011 d
b10100 -
b10100 n
b10100 s
b100100 ,
b100100 o
b100100 q
b10100 6
b10100 N
b10100 l
b100000 +
b100000 L
b100000 e
b100000 r
b100000 t
1!
#850
0!
#900
0B
b1010 3
b1010 k
b1010 x
b1010 7
b1010 >
b1010 ^
b1010 i
b1010 G
b0 9
b0 J
b0 U
b0 Y
b1010 E
b1010 H
0'
b1010 ?
b11111111111111111111111111110101 =
b1010 <
0m
b1010 $
b1010 I
b1010 g
0.
b10 8
b10 T
b10 X
b10 [
05
b1 (
b1 R
b1 ]
1:
b0 1
b0 S
b0 \
b0 a
1%
b111 )
b111 _
b111 h
b111 z
b0 P
b0 W
b10011 Q
b10011 Z
b1100 w
b1010 v
b1010 2
b1010 M
b1010 c
b1010 f
b101000000000011000010011 &
b101000000000011000010011 b
b101000000000011000010011 d
b11000 -
b11000 n
b11000 s
b11000 ,
b11000 o
b11000 q
b11110 6
b11110 N
b11110 l
b10100 +
b10100 L
b10100 e
b10100 r
b10100 t
1!
#950
0!
#1000
b11 3
b11 k
b11 x
b11 7
b11 >
b11 ^
b11 i
b11 G
b11 E
b1 H
b11 ?
b11111111111111111111111111111110 =
b11 <
b0 )
b0 _
b0 h
b0 z
b10 *
b10 K
b10 y
b1 $
b1 I
b1 g
b1011 w
b1 v
b1011 u
b1 2
b1 M
b1 c
b1 f
b101011000010110010011 &
b101011000010110010011 b
b101011000010110010011 d
b11100 -
b11100 n
b11100 s
b11100 ,
b11100 o
b11100 q
b11001 6
b11001 N
b11001 l
b11000 +
b11000 L
b11000 e
b11000 r
b11000 t
1!
#1050
0!
#1100
b11 *
b11 K
b11 y
1B
b110 9
b110 J
b110 U
b110 Y
b0 3
b0 k
b0 x
b0 7
b0 >
b0 ^
b0 i
b0 G
b10 ;
b1101 E
b1010 H
b1001 ?
b11111111111111111111111111110101 =
b1011 <
x.
b1 8
b1 T
b1 X
b1 [
15
b0 (
b0 R
b0 ]
0:
b10 1
b10 S
b10 \
b10 a
0%
b1010 )
b1010 _
b1010 h
b1010 z
b1010 $
b1010 I
b1010 g
b1100011 Q
b1100011 Z
b1000 w
b1100 v
b1000 2
b1000 M
b1000 c
b1000 f
b110001011000010001100011 &
b110001011000010001100011 b
b110001011000010001100011 d
b100000 -
b100000 n
b100000 s
b100000 ,
b100000 o
b100000 q
b100100 6
b100100 N
b100100 l
b11100 +
b11100 L
b11100 e
b11100 r
b11100 t
1!
#1150
0!
#1200
1m
b0 H
1'
b11111111111111111111111111111111 =
b0 $
b0 I
b0 g
b0 E
b0 ?
b0 <
b0 ;
b0 )
b0 _
b0 h
b0 z
b0 *
b0 K
b0 y
b1111111 P
b1111111 W
b10101 w
b0 v
b0 u
b11111111111111111111111111110100 2
b11111111111111111111111111110100 M
b11111111111111111111111111110100 c
b11111111111111111111111111110100 f
b11111110000000000000101011100011 &
b11111110000000000000101011100011 b
b11111110000000000000101011100011 d
b10100 -
b10100 n
b10100 s
b100100 ,
b100100 o
b100100 q
b10100 6
b10100 N
b10100 l
b100000 +
b100000 L
b100000 e
b100000 r
b100000 t
1!
#1250
0!
#1300
0B
b1010 3
b1010 k
b1010 x
b1010 7
b1010 >
b1010 ^
b1010 i
b1010 G
b0 9
b0 J
b0 U
b0 Y
b1010 E
b1010 H
0'
b1010 ?
b11111111111111111111111111110101 =
b1010 <
0m
b1010 $
b1010 I
b1010 g
0.
b10 8
b10 T
b10 X
b10 [
05
b1 (
b1 R
b1 ]
1:
b0 1
b0 S
b0 \
b0 a
1%
b111 )
b111 _
b111 h
b111 z
b0 P
b0 W
b10011 Q
b10011 Z
b1100 w
b1010 v
b1010 2
b1010 M
b1010 c
b1010 f
b101000000000011000010011 &
b101000000000011000010011 b
b101000000000011000010011 d
b11000 -
b11000 n
b11000 s
b11000 ,
b11000 o
b11000 q
b11110 6
b11110 N
b11110 l
b10100 +
b10100 L
b10100 e
b10100 r
b10100 t
1!
#1350
0!
#1400
b100 3
b100 k
b100 x
b100 7
b100 >
b100 ^
b100 i
b100 G
b100 E
b1 H
b10 ?
b11111111111111111111111111111110 =
b11 <
b1 ;
b0 )
b0 _
b0 h
b0 z
b11 *
b11 K
b11 y
b1 $
b1 I
b1 g
b1011 w
b1 v
b1011 u
b1 2
b1 M
b1 c
b1 f
b101011000010110010011 &
b101011000010110010011 b
b101011000010110010011 d
b11100 -
b11100 n
b11100 s
b11100 ,
b11100 o
b11100 q
b11001 6
b11001 N
b11001 l
b11000 +
b11000 L
b11000 e
b11000 r
b11000 t
1!
#1450
0!
#1500
b100 *
b100 K
b100 y
1B
b110 9
b110 J
b110 U
b110 Y
b0 3
b0 k
b0 x
b0 7
b0 >
b0 ^
b0 i
b0 G
b1110 E
b1010 H
b1110 ?
b11111111111111111111111111110101 =
b1110 <
b0 ;
x.
b1 8
b1 T
b1 X
b1 [
15
b0 (
b0 R
b0 ]
0:
b10 1
b10 S
b10 \
b10 a
0%
b1010 )
b1010 _
b1010 h
b1010 z
b1010 $
b1010 I
b1010 g
b1100011 Q
b1100011 Z
b1000 w
b1100 v
b1000 2
b1000 M
b1000 c
b1000 f
b110001011000010001100011 &
b110001011000010001100011 b
b110001011000010001100011 d
b100000 -
b100000 n
b100000 s
b100000 ,
b100000 o
b100000 q
b100100 6
b100100 N
b100100 l
b11100 +
b11100 L
b11100 e
b11100 r
b11100 t
1!
#1550
0!
#1600
1m
b0 H
1'
b11111111111111111111111111111111 =
b0 $
b0 I
b0 g
b0 E
b0 ?
b0 <
b0 )
b0 _
b0 h
b0 z
b0 *
b0 K
b0 y
b1111111 P
b1111111 W
b10101 w
b0 v
b0 u
b11111111111111111111111111110100 2
b11111111111111111111111111110100 M
b11111111111111111111111111110100 c
b11111111111111111111111111110100 f
b11111110000000000000101011100011 &
b11111110000000000000101011100011 b
b11111110000000000000101011100011 d
b10100 -
b10100 n
b10100 s
b100100 ,
b100100 o
b100100 q
b10100 6
b10100 N
b10100 l
b100000 +
b100000 L
b100000 e
b100000 r
b100000 t
1!
#1650
0!
#1700
0B
b1010 3
b1010 k
b1010 x
b1010 7
b1010 >
b1010 ^
b1010 i
b1010 G
b0 9
b0 J
b0 U
b0 Y
b1010 E
b1010 H
0'
b1010 ?
b11111111111111111111111111110101 =
b1010 <
0m
b1010 $
b1010 I
b1010 g
0.
b10 8
b10 T
b10 X
b10 [
05
b1 (
b1 R
b1 ]
1:
b0 1
b0 S
b0 \
b0 a
1%
b111 )
b111 _
b111 h
b111 z
b0 P
b0 W
b10011 Q
b10011 Z
b1100 w
b1010 v
b1010 2
b1010 M
b1010 c
b1010 f
b101000000000011000010011 &
b101000000000011000010011 b
b101000000000011000010011 d
b11000 -
b11000 n
b11000 s
b11000 ,
b11000 o
b11000 q
b11110 6
b11110 N
b11110 l
b10100 +
b10100 L
b10100 e
b10100 r
b10100 t
1!
#1750
0!
#1800
b101 3
b101 k
b101 x
b101 7
b101 >
b101 ^
b101 i
b101 G
b101 E
b1 H
b101 ?
b11111111111111111111111111111110 =
b101 <
b0 )
b0 _
b0 h
b0 z
b100 *
b100 K
b100 y
b1 $
b1 I
b1 g
b1011 w
b1 v
b1011 u
b1 2
b1 M
b1 c
b1 f
b101011000010110010011 &
b101011000010110010011 b
b101011000010110010011 d
b11100 -
b11100 n
b11100 s
b11100 ,
b11100 o
b11100 q
b11001 6
b11001 N
b11001 l
b11000 +
b11000 L
b11000 e
b11000 r
b11000 t
1!
#1850
0!
#1900
b101 *
b101 K
b101 y
1B
b110 9
b110 J
b110 U
b110 Y
b0 3
b0 k
b0 x
b0 7
b0 >
b0 ^
b0 i
b0 G
b1111 E
b1010 H
b1111 ?
b11111111111111111111111111110101 =
b1111 <
b0 ;
x.
b1 8
b1 T
b1 X
b1 [
15
b0 (
b0 R
b0 ]
0:
b10 1
b10 S
b10 \
b10 a
0%
b1010 )
b1010 _
b1010 h
b1010 z
b1010 $
b1010 I
b1010 g
b1100011 Q
b1100011 Z
b1000 w
b1100 v
b1000 2
b1000 M
b1000 c
b1000 f
b110001011000010001100011 &
b110001011000010001100011 b
b110001011000010001100011 d
b100000 -
b100000 n
b100000 s
b100000 ,
b100000 o
b100000 q
b100100 6
b100100 N
b100100 l
b11100 +
b11100 L
b11100 e
b11100 r
b11100 t
1!
#1950
0!
#2000
1m
b0 H
1'
b11111111111111111111111111111111 =
b0 $
b0 I
b0 g
b0 E
b0 ?
b0 <
b0 )
b0 _
b0 h
b0 z
b0 *
b0 K
b0 y
b1111111 P
b1111111 W
b10101 w
b0 v
b0 u
b11111111111111111111111111110100 2
b11111111111111111111111111110100 M
b11111111111111111111111111110100 c
b11111111111111111111111111110100 f
b11111110000000000000101011100011 &
b11111110000000000000101011100011 b
b11111110000000000000101011100011 d
b10100 -
b10100 n
b10100 s
b100100 ,
b100100 o
b100100 q
b10100 6
b10100 N
b10100 l
b100000 +
b100000 L
b100000 e
b100000 r
b100000 t
1!
#2050
0!
#2100
0B
b1010 3
b1010 k
b1010 x
b1010 7
b1010 >
b1010 ^
b1010 i
b1010 G
b0 9
b0 J
b0 U
b0 Y
b1010 E
b1010 H
0'
b1010 ?
b11111111111111111111111111110101 =
b1010 <
0m
b1010 $
b1010 I
b1010 g
0.
b10 8
b10 T
b10 X
b10 [
05
b1 (
b1 R
b1 ]
1:
b0 1
b0 S
b0 \
b0 a
1%
b111 )
b111 _
b111 h
b111 z
b0 P
b0 W
b10011 Q
b10011 Z
b1100 w
b1010 v
b1010 2
b1010 M
b1010 c
b1010 f
b101000000000011000010011 &
b101000000000011000010011 b
b101000000000011000010011 d
b11000 -
b11000 n
b11000 s
b11000 ,
b11000 o
b11000 q
b11110 6
b11110 N
b11110 l
b10100 +
b10100 L
b10100 e
b10100 r
b10100 t
1!
#2150
0!
#2200
b110 3
b110 k
b110 x
b110 7
b110 >
b110 ^
b110 i
b110 G
b110 E
b1 H
b100 ?
b11111111111111111111111111111110 =
b101 <
b1 ;
b0 )
b0 _
b0 h
b0 z
b101 *
b101 K
b101 y
b1 $
b1 I
b1 g
b1011 w
b1 v
b1011 u
b1 2
b1 M
b1 c
b1 f
b101011000010110010011 &
b101011000010110010011 b
b101011000010110010011 d
b11100 -
b11100 n
b11100 s
b11100 ,
b11100 o
b11100 q
b11001 6
b11001 N
b11001 l
b11000 +
b11000 L
b11000 e
b11000 r
b11000 t
1!
#2250
0!
#2300
b110 *
b110 K
b110 y
1B
b110 9
b110 J
b110 U
b110 Y
b0 3
b0 k
b0 x
b0 7
b0 >
b0 ^
b0 i
b0 G
b10000 E
b1010 H
b1100 ?
b11111111111111111111111111110101 =
b1110 <
b10 ;
x.
b1 8
b1 T
b1 X
b1 [
15
b0 (
b0 R
b0 ]
0:
b10 1
b10 S
b10 \
b10 a
0%
b1010 )
b1010 _
b1010 h
b1010 z
b1010 $
b1010 I
b1010 g
b1100011 Q
b1100011 Z
b1000 w
b1100 v
b1000 2
b1000 M
b1000 c
b1000 f
b110001011000010001100011 &
b110001011000010001100011 b
b110001011000010001100011 d
b100000 -
b100000 n
b100000 s
b100000 ,
b100000 o
b100000 q
b100100 6
b100100 N
b100100 l
b11100 +
b11100 L
b11100 e
b11100 r
b11100 t
1!
#2350
0!
#2400
1m
b0 H
1'
b11111111111111111111111111111111 =
b0 $
b0 I
b0 g
b0 E
b0 ?
b0 <
b0 ;
b0 )
b0 _
b0 h
b0 z
b0 *
b0 K
b0 y
b1111111 P
b1111111 W
b10101 w
b0 v
b0 u
b11111111111111111111111111110100 2
b11111111111111111111111111110100 M
b11111111111111111111111111110100 c
b11111111111111111111111111110100 f
b11111110000000000000101011100011 &
b11111110000000000000101011100011 b
b11111110000000000000101011100011 d
b10100 -
b10100 n
b10100 s
b100100 ,
b100100 o
b100100 q
b10100 6
b10100 N
b10100 l
b100000 +
b100000 L
b100000 e
b100000 r
b100000 t
1!
#2450
0!
#2500
0B
b1010 3
b1010 k
b1010 x
b1010 7
b1010 >
b1010 ^
b1010 i
b1010 G
b0 9
b0 J
b0 U
b0 Y
b1010 E
b1010 H
0'
b1010 ?
b11111111111111111111111111110101 =
b1010 <
0m
b1010 $
b1010 I
b1010 g
0.
b10 8
b10 T
b10 X
b10 [
05
b1 (
b1 R
b1 ]
1:
b0 1
b0 S
b0 \
b0 a
1%
b111 )
b111 _
b111 h
b111 z
b0 P
b0 W
b10011 Q
b10011 Z
b1100 w
b1010 v
b1010 2
b1010 M
b1010 c
b1010 f
b101000000000011000010011 &
b101000000000011000010011 b
b101000000000011000010011 d
b11000 -
b11000 n
b11000 s
b11000 ,
b11000 o
b11000 q
b11110 6
b11110 N
b11110 l
b10100 +
b10100 L
b10100 e
b10100 r
b10100 t
1!
#2550
0!
#2600
b111 3
b111 k
b111 x
b111 7
b111 >
b111 ^
b111 i
b111 G
b111 E
b1 H
b111 ?
b11111111111111111111111111111110 =
b111 <
b0 )
b0 _
b0 h
b0 z
b110 *
b110 K
b110 y
b1 $
b1 I
b1 g
b1011 w
b1 v
b1011 u
b1 2
b1 M
b1 c
b1 f
b101011000010110010011 &
b101011000010110010011 b
b101011000010110010011 d
b11100 -
b11100 n
b11100 s
b11100 ,
b11100 o
b11100 q
b11001 6
b11001 N
b11001 l
b11000 +
b11000 L
b11000 e
b11000 r
b11000 t
1!
#2650
0!
#2700
b111 *
b111 K
b111 y
1B
b110 9
b110 J
b110 U
b110 Y
b0 3
b0 k
b0 x
b0 7
b0 >
b0 ^
b0 i
b0 G
b10001 E
b1010 H
b1101 ?
b11111111111111111111111111110101 =
b1111 <
b10 ;
x.
b1 8
b1 T
b1 X
b1 [
15
b0 (
b0 R
b0 ]
0:
b10 1
b10 S
b10 \
b10 a
0%
b1010 )
b1010 _
b1010 h
b1010 z
b1010 $
b1010 I
b1010 g
b1100011 Q
b1100011 Z
b1000 w
b1100 v
b1000 2
b1000 M
b1000 c
b1000 f
b110001011000010001100011 &
b110001011000010001100011 b
b110001011000010001100011 d
b100000 -
b100000 n
b100000 s
b100000 ,
b100000 o
b100000 q
b100100 6
b100100 N
b100100 l
b11100 +
b11100 L
b11100 e
b11100 r
b11100 t
1!
#2750
0!
#2800
1m
b0 H
1'
b11111111111111111111111111111111 =
b0 $
b0 I
b0 g
b0 E
b0 ?
b0 <
b0 ;
b0 )
b0 _
b0 h
b0 z
b0 *
b0 K
b0 y
b1111111 P
b1111111 W
b10101 w
b0 v
b0 u
b11111111111111111111111111110100 2
b11111111111111111111111111110100 M
b11111111111111111111111111110100 c
b11111111111111111111111111110100 f
b11111110000000000000101011100011 &
b11111110000000000000101011100011 b
b11111110000000000000101011100011 d
b10100 -
b10100 n
b10100 s
b100100 ,
b100100 o
b100100 q
b10100 6
b10100 N
b10100 l
b100000 +
b100000 L
b100000 e
b100000 r
b100000 t
1!
#2850
0!
#2900
0B
b1010 3
b1010 k
b1010 x
b1010 7
b1010 >
b1010 ^
b1010 i
b1010 G
b0 9
b0 J
b0 U
b0 Y
b1010 E
b1010 H
0'
b1010 ?
b11111111111111111111111111110101 =
b1010 <
0m
b1010 $
b1010 I
b1010 g
0.
b10 8
b10 T
b10 X
b10 [
05
b1 (
b1 R
b1 ]
1:
b0 1
b0 S
b0 \
b0 a
1%
b111 )
b111 _
b111 h
b111 z
b0 P
b0 W
b10011 Q
b10011 Z
b1100 w
b1010 v
b1010 2
b1010 M
b1010 c
b1010 f
b101000000000011000010011 &
b101000000000011000010011 b
b101000000000011000010011 d
b11000 -
b11000 n
b11000 s
b11000 ,
b11000 o
b11000 q
b11110 6
b11110 N
b11110 l
b10100 +
b10100 L
b10100 e
b10100 r
b10100 t
1!
#2950
0!
#3000
b1000 3
b1000 k
b1000 x
b1000 7
b1000 >
b1000 ^
b1000 i
b1000 G
b1000 E
b1 H
b110 ?
b11111111111111111111111111111110 =
b111 <
b1 ;
b0 )
b0 _
b0 h
b0 z
b111 *
b111 K
b111 y
b1 $
b1 I
b1 g
b1011 w
b1 v
b1011 u
b1 2
b1 M
b1 c
b1 f
b101011000010110010011 &
b101011000010110010011 b
b101011000010110010011 d
b11100 -
b11100 n
b11100 s
b11100 ,
b11100 o
b11100 q
b11001 6
b11001 N
b11001 l
b11000 +
b11000 L
b11000 e
b11000 r
b11000 t
1!
#3050
0!
#3100
b1000 *
b1000 K
b1000 y
1B
b110 9
b110 J
b110 U
b110 Y
b0 3
b0 k
b0 x
b0 7
b0 >
b0 ^
b0 i
b0 G
b10010 E
b1010 H
b10 ?
b11111111111111111111111111110101 =
b1010 <
b1000 ;
x.
b1 8
b1 T
b1 X
b1 [
15
b0 (
b0 R
b0 ]
0:
b10 1
b10 S
b10 \
b10 a
0%
b1010 )
b1010 _
b1010 h
b1010 z
b1010 $
b1010 I
b1010 g
b1100011 Q
b1100011 Z
b1000 w
b1100 v
b1000 2
b1000 M
b1000 c
b1000 f
b110001011000010001100011 &
b110001011000010001100011 b
b110001011000010001100011 d
b100000 -
b100000 n
b100000 s
b100000 ,
b100000 o
b100000 q
b100100 6
b100100 N
b100100 l
b11100 +
b11100 L
b11100 e
b11100 r
b11100 t
1!
#3150
0!
#3200
1m
b0 H
1'
b11111111111111111111111111111111 =
b0 <
b0 $
b0 I
b0 g
b0 E
b0 ?
b0 ;
b0 )
b0 _
b0 h
b0 z
b0 *
b0 K
b0 y
b1111111 P
b1111111 W
b10101 w
b0 v
b0 u
b11111111111111111111111111110100 2
b11111111111111111111111111110100 M
b11111111111111111111111111110100 c
b11111111111111111111111111110100 f
b11111110000000000000101011100011 &
b11111110000000000000101011100011 b
b11111110000000000000101011100011 d
b10100 -
b10100 n
b10100 s
b100100 ,
b100100 o
b100100 q
b10100 6
b10100 N
b10100 l
b100000 +
b100000 L
b100000 e
b100000 r
b100000 t
1!
#3250
0!
#3300
0B
b1010 3
b1010 k
b1010 x
b1010 7
b1010 >
b1010 ^
b1010 i
b1010 G
b0 9
b0 J
b0 U
b0 Y
b1010 E
b1010 H
0'
b1010 ?
b11111111111111111111111111110101 =
b1010 <
0m
b1010 $
b1010 I
b1010 g
0.
b10 8
b10 T
b10 X
b10 [
05
b1 (
b1 R
b1 ]
1:
b0 1
b0 S
b0 \
b0 a
1%
b111 )
b111 _
b111 h
b111 z
b0 P
b0 W
b10011 Q
b10011 Z
b1100 w
b1010 v
b1010 2
b1010 M
b1010 c
b1010 f
b101000000000011000010011 &
b101000000000011000010011 b
b101000000000011000010011 d
b11000 -
b11000 n
b11000 s
b11000 ,
b11000 o
b11000 q
b11110 6
b11110 N
b11110 l
b10100 +
b10100 L
b10100 e
b10100 r
b10100 t
1!
#3350
0!
